[
  {
    "device_name": "Samsung Galaxy F55",
    "device_image": "https://fdn2.gsmarena.com/vv/bigpic/samsung-galaxy-a55.jpg",
    "key": "samsung_galaxy_f55-12885",
    "category": "latest-devices"
  },
  {
    "device_name": "Xiaomi Poco C61",
    "device_image": "https://fdn2.gsmarena.com/vv/bigpic/xiaomi-redmi-a3.jpg",
    "key": "xiaomi_poco_c61-12886",
    "category": "latest-devices"
  },
  {
    "device_name": "Realme Narzo 70 Pro",
    "device_image": "https://fdn2.gsmarena.com/vv/bigpic/realme-narzo-70-pro.jpg",
    "key": "realme_narzo_70_pro-12878",
    "category": "latest-devices"
  },
  {
    "device_name": "Infinix Note 40 Pro",
    "device_image": "https://fdn2.gsmarena.com/vv/bigpic/infinix-note-40-pro-5g-.jpg",
    "key": "infinix_note_40_pro-12875",
    "category": "latest-devices"
  },
  {
    "device_name": "Huawei nova 12i",
    "device_image": "https://fdn2.gsmarena.com/vv/bigpic/huawei-nova-12i.jpg",
    "key": "huawei_nova_12i-12882",
    "category": "latest-devices"
  },
  {
    "device_name": "Huawei nova 12 SE",
    "device_image": "https://fdn2.gsmarena.com/vv/bigpic/huawei-nova-11-se.jpg",
    "key": "huawei_nova_12_se-12881",
    "category": "latest-devices"
  },
  {
    "device_name": "Huawei nova 12s",
    "device_image": "https://fdn2.gsmarena.com/vv/bigpic/huawei-nova-12s.jpg",
    "key": "huawei_nova_12s-12880",
    "category": "latest-devices"
  },
  {
    "device_name": "Honor Magic6 RSR",
    "device_image": "https://fdn2.gsmarena.com/vv/bigpic/honor-magic6-rsr-porsche-design.jpg",
    "key": "honor_magic6_rsr_porsche_design-12873",
    "category": "latest-devices"
  },
  {
    "device_name": "Infinix Note 40 Pro+",
    "device_image": "https://fdn2.gsmarena.com/vv/bigpic/infinix-note-40-pro-plus-5g-.jpg",
    "key": "infinix_note_40_pro+-12874",
    "category": "latest-devices"
  },
  {
    "device_name": "Samsung Galaxy A55",
    "device_image": "https://fdn2.gsmarena.com/vv/bigpic/samsung-galaxy-a55.jpg",
    "key": "samsung_galaxy_a55-12824",
    "category": "in-stores-now"
  },
  {
    "device_name": "Samsung Galaxy A35",
    "device_image": "https://fdn2.gsmarena.com/vv/bigpic/samsung-galaxy-a35.jpg",
    "key": "samsung_galaxy_a35-12705",
    "category": "in-stores-now"
  },
  {
    "device_name": "Asus Zenfone 11 Ultra",
    "device_image": "https://fdn2.gsmarena.com/vv/bigpic/asus-zenfone-11-ultra.jpg",
    "key": "asus_zenfone_11_ultra-12820",
    "category": "in-stores-now"
  },
  {
    "device_name": "Nothing Phone (2a)",
    "device_image": "https://fdn2.gsmarena.com/vv/bigpic/nothing-phone-2a.jpg",
    "key": "nothing_phone_(2a)-12760",
    "category": "in-stores-now"
  },
  {
    "device_name": "Xiaomi Poco X6 Neo",
    "device_image": "https://fdn2.gsmarena.com/vv/bigpic/xiaomi-poco-x6-neo-.jpg",
    "key": "xiaomi_poco_x6_neo-12863",
    "category": "in-stores-now"
  },
  {
    "device_name": "Blackview Color 8",
    "device_image": "https://fdn2.gsmarena.com/vv/bigpic/blackview-color8.jpg",
    "key": "blackview_color_8-12883",
    "category": "in-stores-now"
  },
  {
    "device_name": "vivo iQOO Z9",
    "device_image": "https://fdn2.gsmarena.com/vv/bigpic/vivo-iqoo-z9.jpg",
    "key": "vivo_iqoo_z9-12865",
    "category": "in-stores-now"
  },
  {
    "device_name": "Samsung Galaxy F15",
    "device_image": "https://fdn2.gsmarena.com/vv/bigpic/samsung-galaxy-f15-5g.jpg",
    "key": "samsung_galaxy_f15-12831",
    "category": "in-stores-now"
  },
  {
    "device_name": "Xiaomi 14",
    "device_image": "https://fdn2.gsmarena.com/vv/bigpic/xiaomi-14-new.jpg",
    "key": "xiaomi_14-12626",
    "category": "in-stores-now"
  }
]
